uart/uart_sim.vcd
$date
	Tue Dec 02 20:28:44 2025
$end
$version
	Icarus Verilog
$end
$timescale
	1ps
$end
$scope module tb_uart_tx $end
$var wire 1 ! tx_serial $end
$var wire 1 " busy $end
$var parameter 32 # CLKS_PER_BIT $end
$var parameter 32 $ CLK_PERIOD $end
$var reg 1 % clk $end
$var reg 1 & rst_n $end
$var reg 8 ' tx_data [7:0] $end
$var reg 1 ( tx_start $end
$scope module uut $end
$var wire 1 % clk $end
$var wire 1 & rst_n $end
$var wire 8 ) tx_data [7:0] $end
$var wire 1 ( tx_start $end
$var parameter 32 * CLKS_PER_BIT $end
$var parameter 2 + DATA $end
$var parameter 2 , IDLE $end
$var parameter 2 - START $end
$var parameter 2 . STOP $end
$var reg 3 / bit_index [2:0] $end
$var reg 1 " busy $end
$var reg 13 0 clk_count [12:0] $end
$var reg 8 1 data_temp [7:0] $end
$var reg 2 2 state [1:0] $end
$var reg 1 ! tx_serial $end
$upscope $end
$upscope $end
$enddefinitions $end
$comment Show the parameter values. $end
$dumpall
b11 .
b1 -
b0 ,
b10 +
b100 *
b10100 $
b100 #
$end
#0
$dumpvars
b0 2
b0 1
b0 0
b0 /
b0 )
0(
b0 '
0&
0%
0"
1!
$end
#10000
1%
#20000
0%
#30000
1%
#40000
0%
#50000
1%
#60000
0%
#70000
1%
#80000
0%
#90000
1%
#100000
0%
1&
#110000
1%
#120000
0%
#130000
1%
#140000
0%
1(
b1000001 '
b1000001 )
#150000
b1 2
1"
b1000001 1
1%
#160000
0%
0(
#170000
b1 0
0!
1%
#180000
0%
#190000
b10 0
1%
#200000
0%
#210000
b11 0
1%
#220000
0%
#230000
b10 2
b0 0
1%
#240000
0%
#250000
b1 0
1!
1%
#260000
0%
#270000
b10 0
1%
#280000
0%
#290000
b11 0
1%
#300000
0%
#310000
b1 /
b0 0
1%
#320000
0%
#330000
b1 0
0!
1%
#340000
0%
#350000
b10 0
1%
#360000
0%
#370000
b11 0
1%
#380000
0%
#390000
b10 /
b0 0
1%
#400000
0%
#410000
b1 0
1%
#420000
0%
#430000
b10 0
1%
#440000
0%
#450000
b11 0
1%
#460000
0%
#470000
b11 /
b0 0
1%
#480000
0%
#490000
b1 0
1%
#500000
0%
#510000
b10 0
1%
#520000
0%
#530000
b11 0
1%
#540000
0%
#550000
b100 /
b0 0
1%
#560000
0%
#570000
b1 0
1%
#580000
0%
#590000
b10 0
1%
#600000
0%
#610000
b11 0
1%
#620000
0%
#630000
b101 /
b0 0
1%
#640000
0%
#650000
b1 0
1%
#660000
0%
#670000
b10 0
1%
#680000
0%
#690000
b11 0
1%
#700000
0%
#710000
b110 /
b0 0
1%
#720000
0%
#730000
b1 0
1!
1%
#740000
0%
#750000
b10 0
1%
#760000
0%
#770000
b11 0
1%
#780000
0%
#790000
b111 /
b0 0
1%
#800000
0%
#810000
b1 0
0!
1%
#820000
0%
#830000
b10 0
1%
#840000
0%
#850000
b11 0
1%
#860000
0%
#870000
b11 2
b0 /
b0 0
1%
#880000
0%
#890000
b1 0
1!
1%
#900000
0%
#910000
b10 0
1%
#920000
0%
#930000
b11 0
1%
#940000
0%
#950000
b0 2
0"
b0 0
1%
#960000
0%
#970000
1%
#980000
0%
#990000
1%
#1000000
0%
#1010000
1%
#1020000
0%
#1030000
1%
#1040000
0%
#1050000
1%
#1060000
0%
#1070000
1%
#1080000
0%
#1090000
1%
#1100000
0%
#1110000
1%
#1120000
0%
#1130000
1%
#1140000
0%
#1150000
b1 2
1"
b1010101 1
1%
1(
b1010101 '
b1010101 )
#1160000
0%
#1170000
b1 0
0!
1%
0(
#1180000
0%
#1190000
b10 0
1%
#1200000
0%
#1210000
b11 0
1%
#1220000
0%
#1230000
b10 2
b0 0
1%
#1240000
0%
#1250000
b1 0
1!
1%
#1260000
0%
#1270000
b10 0
1%
#1280000
0%
#1290000
b11 0
1%
#1300000
0%
#1310000
b1 /
b0 0
1%
#1320000
0%
#1330000
b1 0
0!
1%
#1340000
0%
#1350000
b10 0
1%
#1360000
0%
#1370000
b11 0
1%
#1380000
0%
#1390000
b10 /
b0 0
1%
#1400000
0%
#1410000
b1 0
1!
1%
#1420000
0%
#1430000
b10 0
1%
#1440000
0%
#1450000
b11 0
1%
#1460000
0%
#1470000
b11 /
b0 0
1%
#1480000
0%
#1490000
b1 0
0!
1%
#1500000
0%
#1510000
b10 0
1%
#1520000
0%
#1530000
b11 0
1%
#1540000
0%
#1550000
b100 /
b0 0
1%
#1560000
0%
#1570000
b1 0
1!
1%
#1580000
0%
#1590000
b10 0
1%
#1600000
0%
#1610000
b11 0
1%
#1620000
0%
#1630000
b101 /
b0 0
1%
#1640000
0%
#1650000
b1 0
0!
1%
#1660000
0%
#1670000
b10 0
1%
#1680000
0%
#1690000
b11 0
1%
#1700000
0%
#1710000
b110 /
b0 0
1%
#1720000
0%
#1730000
b1 0
1!
1%
#1740000
0%
#1750000
b10 0
1%
#1760000
0%
#1770000
b11 0
1%
#1780000
0%
#1790000
b111 /
b0 0
1%
#1800000
0%
#1810000
b1 0
0!
1%
#1820000
0%
#1830000
b10 0
1%
#1840000
0%
#1850000
b11 0
1%
#1860000
0%
#1870000
b11 2
b0 /
b0 0
1%
#1880000
0%
#1890000
b1 0
1!
1%
#1900000
0%
#1910000
b10 0
1%
#1920000
0%
#1930000
b11 0
1%
#1940000
0%
#1950000
b0 2
0"
b0 0
1%
